{
    "Capitals": [
        {
            "Id": 1,
            "Latitude": 0,
            "Longtitude": 0,
            "Name": "a",
            "Population": 0,
            "Square": 0
        },
        {
            "Id": 2,
            "Latitude": 0,
            "Longtitude": 0,
            "Name": "b",
            "Population": 0,
            "Square": 0
        },
        {
            "Id": 3,
            "Latitude": 0,
            "Longtitude": 0,
            "Name": "c",
            "Population": 0,
            "Square": 0
        },
        {
            "Id": 4,
            "Latitude": 0,
            "Longtitude": 11,
            "Name": "d",
            "Population": 0,
            "Square": 132
        },
        {
            "Id": 5,
            "Latitude": 24,
            "Longtitude": 0,
            "Name": "e",
            "Population": 0,
            "Square": 333
        },
        {
            "Id": 6,
            "Latitude": 133,
            "Longtitude": 23,
            "Name": "f",
            "Population": 32,
            "Square": 333
        }
    ]
}
